x_1_16,0.0
x_1_30,0.0
x_1_84,0.0
x_1_24,0.0
x_1_86,0.0
x_1_49,0.0
x_1_52,0.0
x_1_10,0.0
x_1_73,0.0
x_1_1,0.0
x_1_29,0.0
x_1_17,0.0
x_1_63,0.0
x_1_57,0.0
x_1_33,0.0
x_1_70,0.0
x_1_47,0.0
x_1_5,0.0
x_1_89,0.0
x_1_51,0.0
x_2_63,0.0
x_2_38,1.0
x_2_70,0.0
x_2_55,0.0
x_2_91,0.0
x_2_96,0.0
x_2_52,0.0
x_2_60,0.0
x_2_33,0.0
x_2_39,0.0
x_2_28,0.0
x_2_100,0.0
x_2_64,0.0
x_2_44,0.0
x_2_84,0.0
x_2_7,0.0
x_2_13,0.0
x_2_16,0.0
x_2_47,0.0
x_2_40,0.0
x_3_94,0.5
x_3_17,0.0
x_3_9,0.5
x_3_51,0.0
x_3_41,0.0
x_3_95,0.0
x_3_52,0.0
x_3_31,0.0
x_3_44,0.0
x_3_93,0.0
x_3_69,0.0
x_3_55,0.0
x_3_19,0.0
x_3_18,0.0
x_3_79,0.0
x_3_60,0.0
x_3_32,0.0
x_3_58,0.0
x_3_7,0.0
x_3_10,0.0
x_4_10,0.0
x_4_65,0.0
x_4_18,0.0
x_4_60,0.0
x_4_44,0.0
x_4_33,0.0
x_4_95,0.0
x_4_58,0.0
x_4_74,0.0
x_4_51,0.0
x_4_29,0.0
x_4_45,0.0
x_4_28,0.0
x_4_73,0.0
x_4_70,0.0
x_4_63,0.0
x_4_49,0.0
x_4_19,0.0
x_4_54,0.0
x_4_5,0.5
x_5_65,0.0
x_5_22,0.0
x_5_73,0.0
x_5_80,0.0
x_5_51,0.0
x_5_83,0.0
x_5_33,0.0
x_5_40,0.0
x_5_58,0.0
x_5_29,0.0
x_5_55,0.0
x_5_60,0.0
x_5_54,0.0
x_5_7,0.0
x_5_37,0.0
x_5_89,0.5
x_5_70,0.0
x_5_63,0.0
x_5_69,0.0
x_5_94,0.0
x_6_60,0.0
x_6_21,1.0
x_6_75,0.0
x_6_39,0.0
x_6_68,0.0
x_6_48,0.0
x_6_37,0.0
x_6_51,0.0
x_6_15,0.0
x_6_96,0.0
x_6_65,0.0
x_6_52,0.0
x_6_69,0.0
x_6_9,0.0
x_6_54,0.0
x_6_47,0.0
x_6_30,0.0
x_6_16,0.0
x_6_55,0.0
x_6_28,0.0
x_7_51,1.0
x_7_44,0.0
x_7_26,0.0
x_7_63,0.0
x_7_30,0.0
x_7_29,0.0
x_7_55,0.0
x_7_96,0.0
x_7_47,0.0
x_7_82,0.0
x_7_24,0.0
x_7_10,0.0
x_7_1,0.0
x_7_37,0.0
x_7_59,0.0
x_7_60,0.0
x_7_73,0.0
x_7_69,0.0
x_7_33,0.0
x_7_34,0.0
x_8_54,0.0
x_8_52,0.0
x_8_84,0.0
x_8_75,0.0
x_8_2,0.0
x_8_80,0.0
x_8_13,0.666666666667
x_8_16,0.0
x_8_33,0.0
x_8_59,0.0
x_8_43,0.333333333333
x_8_98,0.0
x_8_22,0.0
x_8_73,0.0
x_8_93,0.0
x_8_83,0.0
x_8_76,0.0
x_8_74,0.0
x_8_96,0.0
x_8_60,0.0
x_9_32,0.0
x_9_10,0.5
x_9_52,0.0
x_9_96,0.0
x_9_64,0.5
x_9_54,0.0
x_9_94,0.0
x_9_12,0.0
x_9_51,0.0
x_9_2,0.0
x_9_30,0.0
x_9_44,0.0
x_9_82,0.0
x_9_49,0.0
x_9_55,0.0
x_9_19,0.0
x_9_11,0.0
x_9_40,0.0
x_9_29,0.0
x_9_41,0.0
x_10_44,0.666666666667
x_10_81,0.333333333333
x_10_68,0.0
x_10_10,0.0
x_10_29,0.0
x_10_28,0.0
x_10_48,0.0
x_10_14,0.0
x_10_7,0.0
x_10_80,0.0
x_10_15,0.0
x_10_1,0.0
x_10_89,0.0
x_10_55,0.0
x_10_17,0.0
x_10_32,0.0
x_10_30,0.0
x_10_98,0.0
x_10_82,0.0
x_10_74,0.0
x_11_29,0.0
x_11_60,0.0
x_11_33,0.0
x_11_35,0.0
x_11_63,1.0
x_11_92,0.0
x_11_44,0.0
x_11_51,0.0
x_11_18,0.0
x_11_12,0.0
x_11_52,0.0
x_11_64,0.0
x_11_37,0.0
x_11_79,0.0
x_11_96,0.0
x_11_99,0.0
x_11_36,0.0
x_11_58,0.0
x_11_16,0.0
x_11_74,0.0
x_12_69,0.0
x_12_52,0.0
x_12_65,0.0
x_12_80,0.0
x_12_95,0.0
x_12_10,0.0
x_12_19,0.0
x_12_73,0.0
x_12_55,0.0
x_12_44,0.0
x_12_74,0.0
x_12_35,0.0
x_12_39,0.0
x_12_45,0.0
x_12_15,0.0
x_12_17,0.0
x_12_47,0.0
x_12_89,0.0
x_12_1,0.0
x_12_70,0.0
x_13_51,0.0
x_13_95,1.0
x_13_52,0.0
x_13_60,0.0
x_13_71,0.0
x_13_19,0.0
x_13_53,0.0
x_13_74,0.0
x_13_45,0.0
x_13_92,0.0
x_13_44,0.0
x_13_98,0.0
x_13_82,0.0
x_13_62,0.0
x_13_7,0.0
x_13_22,0.0
x_13_41,0.0
x_13_31,0.0
x_13_73,0.0
x_13_33,0.0
x_14_83,0.5
x_14_29,0.0
x_14_10,0.0
x_14_15,0.0
x_14_31,0.5
x_14_32,0.0
x_14_33,0.0
x_14_93,0.0
x_14_55,0.0
x_14_45,0.0
x_14_37,0.0
x_14_49,0.0
x_14_41,0.0
x_14_74,0.0
x_14_96,0.0
x_14_54,0.0
x_14_59,0.0
x_14_69,0.0
x_14_7,0.0
x_14_8,0.0
x_15_74,0.0
x_15_18,1.0
x_15_63,0.0
x_15_88,0.0
x_15_9,0.0
x_15_92,0.0
x_15_28,0.0
x_15_47,0.0
x_15_48,0.0
x_15_29,0.0
x_15_60,0.0
x_15_31,0.0
x_15_51,0.0
x_15_100,0.0
x_15_54,0.0
x_15_35,0.0
x_15_44,0.0
x_15_30,0.0
x_15_55,0.0
x_15_27,0.0
x_16_74,0.0
x_16_22,0.0
x_16_73,0.0
x_16_37,0.0
x_16_94,0.0
x_16_44,0.0
x_16_42,1.0
x_16_100,0.0
x_16_83,0.0
x_16_63,0.0
x_16_19,0.0
x_16_52,0.0
x_16_29,0.0
x_16_28,0.0
x_16_70,0.0
x_16_34,0.0
x_16_1,0.0
x_16_17,0.0
x_16_16,0.0
x_16_10,0.0
x_17_51,0.0
x_17_30,0.0
x_17_9,0.0
x_17_17,0.5
x_17_75,0.0
x_17_70,0.0
x_17_2,0.0
x_17_27,0.0
x_17_60,0.0
x_17_74,0.0
x_17_47,0.0
x_17_39,0.0
x_17_37,0.0
x_17_96,0.0
x_17_58,0.166666666667
x_17_45,0.0
x_17_19,0.166666666667
x_17_66,0.0
x_17_69,0.166666666667
x_17_33,0.0
x_18_7,0.5
x_18_32,0.0
x_18_55,0.0
x_18_94,0.0
x_18_74,0.0
x_18_63,0.0
x_18_73,0.0
x_18_10,0.0
x_18_70,0.0
x_18_86,0.0
x_18_44,0.0
x_18_65,0.0
x_18_52,0.0
x_18_39,0.5
x_18_29,0.0
x_18_46,0.0
x_18_47,0.0
x_18_60,0.0
x_18_83,0.0
x_18_19,0.0
x_19_91,0.0
x_19_82,0.0
x_19_96,0.0
x_19_57,0.5
x_19_33,0.0
x_19_58,0.0
x_19_1,0.0
x_19_37,0.0
x_19_45,0.0
x_19_84,0.0
x_19_49,0.0
x_19_29,0.0
x_19_73,0.0
x_19_60,0.0
x_19_75,0.0
x_19_86,0.0
x_19_52,0.0
x_19_44,0.0
x_19_10,0.0
x_19_51,0.0
x_20_88,1.0
x_20_22,0.0
x_20_39,0.0
x_20_24,0.0
x_20_8,0.0
x_20_16,0.0
x_20_95,0.0
x_20_10,0.0
x_20_96,0.0
x_20_47,0.0
x_20_33,0.0
x_20_52,0.0
x_20_15,0.0
x_20_44,0.0
x_20_74,0.0
x_20_75,0.0
x_20_41,0.0
x_20_49,0.0
x_20_6,0.0
x_20_60,0.0
x_21_16,0.0
x_21_37,0.5
x_21_89,0.0
x_21_51,0.0
x_21_7,0.0
x_21_17,0.0
x_21_82,0.0
x_21_63,0.0
x_21_15,0.0
x_21_96,0.0
x_21_8,0.0
x_21_9,0.0
x_21_84,0.0
x_21_33,0.0
x_21_50,0.0
x_21_58,0.0
x_21_47,0.0
x_21_25,0.5
x_21_52,0.0
x_21_29,0.0
x_22_55,1.0
x_22_74,0.0
x_22_30,0.0
x_22_98,0.0
x_22_33,0.0
x_22_96,0.0
x_22_1,0.0
x_22_83,0.0
x_22_41,0.0
x_22_47,0.0
x_22_60,0.0
x_22_10,0.0
x_22_44,0.0
x_22_9,0.0
x_22_18,0.0
x_22_21,0.0
x_22_51,0.0
x_22_17,0.0
x_22_2,0.0
x_22_81,0.0
x_23_14,1.0
x_23_51,0.0
x_23_8,0.0
x_23_87,0.0
x_23_30,0.0
x_23_60,0.0
x_23_70,0.0
x_23_55,0.0
x_23_47,0.0
x_23_74,0.0
x_23_100,0.0
x_23_82,0.0
x_23_18,0.0
x_23_22,0.0
x_23_88,0.0
x_23_96,0.0
x_23_7,0.0
x_23_69,0.0
x_23_35,0.0
x_23_48,0.0
x_24_66,1.0
x_24_82,0.0
x_24_97,0.0
x_24_55,0.0
x_24_75,0.0
x_24_95,0.0
x_24_83,0.0
x_24_89,0.0
x_24_60,0.0
x_24_58,0.0
x_24_22,0.0
x_24_7,0.0
x_24_78,0.0
x_24_52,0.0
x_24_85,0.0
x_24_19,0.0
x_24_47,0.0
x_24_16,0.0
x_24_74,0.0
x_24_84,0.0
x_25_69,0.0
x_25_57,0.0
x_25_1,0.0
x_25_61,0.0
x_25_12,0.0
x_25_33,0.0
x_25_10,0.0
x_25_6,0.0
x_25_73,0.0
x_25_58,0.0
x_25_89,0.0
x_25_60,0.0
x_25_88,0.0
x_25_29,0.0
x_25_66,0.0
x_25_96,0.0
x_25_9,0.0
x_25_92,0.0
x_25_44,0.0
x_25_51,0.0
x_26_94,0.0
x_26_75,0.0
x_26_46,1.0
x_26_92,0.0
x_26_33,0.0
x_26_81,0.0
x_26_8,0.0
x_26_74,0.0
x_26_44,0.0
x_26_47,0.0
x_26_29,0.0
x_26_2,0.0
x_26_93,0.0
x_26_22,0.0
x_26_15,0.0
x_26_95,0.0
x_26_52,0.0
x_26_59,0.0
x_26_41,0.0
x_26_54,0.0
x_27_37,0.0
x_27_22,0.0
x_27_70,0.0
x_27_99,0.0
x_27_93,0.333333333333
x_27_7,0.0
x_27_60,0.0
x_27_65,0.0
x_27_59,0.166666666667
x_27_74,0.0
x_27_95,0.0
x_27_18,0.0
x_27_58,0.0
x_27_29,0.0
x_27_44,0.0
x_27_100,0.0
x_27_97,0.0
x_27_15,0.5
x_27_73,0.0
x_27_82,0.0
x_28_33,0.0
x_28_29,1.0
x_28_63,0.0
x_28_73,0.0
x_28_93,0.0
x_28_84,0.0
x_28_98,0.0
x_28_2,0.0
x_28_52,0.0
x_28_47,0.0
x_28_32,0.0
x_28_60,0.0
x_28_43,0.0
x_28_74,0.0
x_28_36,0.0
x_28_45,0.0
x_28_58,0.0
x_28_46,0.0
x_28_70,0.0
x_28_68,0.0
x_29_8,0.0
x_29_73,0.5
x_29_44,0.0
x_29_66,0.0
x_29_69,0.0
x_29_30,0.0
x_29_5,0.0
x_29_57,0.0
x_29_22,0.0
x_29_47,0.0
x_29_83,0.0
x_29_96,0.0
x_29_74,0.0
x_29_63,0.0
x_29_60,0.0
x_29_67,0.5
x_29_81,0.0
x_29_49,0.0
x_29_40,0.0
x_29_80,0.0
x_30_74,0.0
x_30_70,0.0
x_30_22,0.0
x_30_58,0.0
x_30_61,0.0
x_30_51,0.0
x_30_55,0.0
x_30_83,0.0
x_30_63,0.0
x_30_41,0.0
x_30_19,0.0
x_30_97,0.0
x_30_60,0.0
x_30_50,0.5
x_30_54,0.0
x_30_98,0.0
x_30_89,0.0
x_30_15,0.0
x_30_96,0.0
x_30_32,0.0
x_31_68,1.0
x_31_44,0.0
x_31_98,0.0
x_31_37,0.0
x_31_40,0.0
x_31_33,0.0
x_31_73,0.0
x_31_86,0.0
x_31_74,0.0
x_31_15,0.0
x_31_60,0.0
x_31_52,0.0
x_31_80,0.0
x_31_64,0.0
x_31_45,0.0
x_31_95,0.0
x_31_9,0.0
x_31_30,0.0
x_31_83,0.0
x_31_19,0.0
x_32_9,0.5
x_32_48,0.0
x_32_29,0.0
x_32_94,0.0
x_32_2,0.5
x_32_54,0.0
x_32_96,0.0
x_32_51,0.0
x_32_15,0.0
x_32_41,0.0
x_32_52,0.0
x_32_44,0.0
x_32_1,0.0
x_32_80,0.0
x_32_99,0.0
x_32_60,0.0
x_32_69,0.0
x_32_70,0.0
x_32_40,0.0
x_32_97,0.0
x_33_95,0.0
x_33_73,0.0
x_33_37,0.0
x_33_29,0.0
x_33_69,0.0
x_33_7,0.0
x_33_88,0.0
x_33_60,0.0
x_33_82,0.0
x_33_19,0.0
x_33_51,0.0
x_33_47,0.0
x_33_16,0.0
x_33_10,0.0
x_33_86,0.0
x_33_30,0.0
x_33_96,0.0
x_33_40,0.0
x_33_83,0.0
x_33_63,0.0
x_34_85,1.0
x_34_97,0.0
x_34_82,0.0
x_34_16,0.0
x_34_60,0.0
x_34_76,0.0
x_34_83,0.0
x_34_32,0.0
x_34_100,0.0
x_34_45,0.0
x_34_30,0.0
x_34_55,0.0
x_34_7,0.0
x_34_17,0.0
x_34_89,0.0
x_34_1,0.0
x_34_96,0.0
x_34_99,0.0
x_34_84,0.0
x_34_61,0.0
x_35_99,0.0
x_35_82,0.0
x_35_16,0.0
x_35_17,0.0
x_35_7,0.0
x_35_30,0.0
x_35_73,0.0
x_35_1,0.0
x_35_29,0.0
x_35_18,0.0
x_35_19,0.0
x_35_94,0.0
x_35_74,0.0
x_35_52,0.0
x_35_83,0.0
x_35_95,0.0
x_35_55,0.0
x_35_60,0.0
x_35_35,0.0
x_35_15,0.0
x_36_84,0.0
x_36_44,0.0
x_36_1,0.0
x_36_70,0.0
x_36_80,0.0
x_36_83,0.0
x_36_9,0.0
x_36_35,0.0
x_36_94,0.0
x_36_69,0.0
x_36_33,0.0
x_36_73,0.0
x_36_12,0.0
x_36_76,1.0
x_36_85,0.0
x_36_18,0.0
x_36_47,0.0
x_36_60,0.0
x_36_52,0.0
x_36_55,0.0
x_37_70,0.0
x_37_47,0.0
x_37_95,0.0
x_37_99,0.0
x_37_61,0.5
x_37_100,0.0
x_37_58,0.0
x_37_22,0.0
x_37_10,0.0
x_37_31,0.0
x_37_74,0.0
x_37_52,0.0
x_37_1,0.0
x_37_69,0.0
x_37_60,0.0
x_37_33,0.0
x_37_73,0.0
x_37_91,0.0
x_37_2,0.0
x_37_80,0.0
x_38_34,1.0
x_38_70,0.0
x_38_73,0.0
x_38_1,0.0
x_38_100,0.0
x_38_52,0.0
x_38_24,0.0
x_38_92,0.0
x_38_88,0.0
x_38_76,0.0
x_38_30,0.0
x_38_28,0.0
x_38_21,0.0
x_38_3,0.0
x_38_44,0.0
x_38_65,0.0
x_38_17,0.0
x_38_60,0.0
x_38_50,0.0
x_38_15,0.0
x_39_82,0.0
x_39_33,0.0
x_39_19,0.0
x_39_29,0.0
x_39_95,0.0
x_39_35,0.0
x_39_74,0.0
x_39_73,0.0
x_39_83,0.0
x_39_98,0.0
x_39_96,0.0
x_39_79,0.0
x_39_15,0.0
x_39_1,0.0
x_39_30,0.0
x_39_7,0.0
x_39_97,0.0
x_39_59,0.166666666667
x_39_44,0.0
x_39_22,0.0
x_40_36,1.0
x_40_6,0.0
x_40_31,0.0
x_40_90,0.0
x_40_60,0.0
x_40_19,0.0
x_40_27,0.0
x_40_29,0.0
x_40_82,0.0
x_40_97,0.0
x_40_98,0.0
x_40_59,0.0
x_40_51,0.0
x_40_10,0.0
x_40_95,0.0
x_40_73,0.0
x_40_39,0.0
x_40_22,0.0
x_40_18,0.0
x_40_41,0.0
x_41_47,1.0
x_41_99,0.0
x_41_49,0.0
x_41_73,0.0
x_41_69,0.0
x_41_74,0.0
x_41_55,0.0
x_41_70,0.0
x_41_57,0.0
x_41_13,0.0
x_41_88,0.0
x_41_63,0.0
x_41_9,0.0
x_41_96,0.0
x_41_10,0.0
x_41_93,0.0
x_41_60,0.0
x_41_7,0.0
x_41_29,0.0
x_41_91,0.0
x_42_74,1.0
x_42_22,0.0
x_42_32,0.0
x_42_53,0.0
x_42_95,0.0
x_42_48,0.0
x_42_37,0.0
x_42_55,0.0
x_42_73,0.0
x_42_84,0.0
x_42_60,0.0
x_42_89,0.0
x_42_69,0.0
x_42_20,0.0
x_42_90,0.0
x_42_44,0.0
x_42_78,0.0
x_42_29,0.0
x_42_97,0.0
x_42_88,0.0
x_43_96,1.0
x_43_51,0.0
x_43_75,0.0
x_43_55,0.0
x_43_19,0.0
x_43_82,0.0
x_43_63,0.0
x_43_74,0.0
x_43_22,0.0
x_43_100,0.0
x_43_15,0.0
x_43_1,0.0
x_43_59,0.0
x_43_60,0.0
x_43_7,0.0
x_43_73,0.0
x_43_16,0.0
x_43_69,0.0
x_43_70,0.0
x_43_97,0.0
x_44_32,0.0
x_44_19,0.5
x_44_70,0.0
x_44_52,0.0
x_44_74,0.0
x_44_17,0.0
x_44_51,0.0
x_44_84,0.0
x_44_2,0.0
x_44_91,0.0
x_44_95,0.0
x_44_58,0.0
x_44_22,0.0
x_44_89,0.0
x_44_36,0.0
x_44_79,0.0
x_44_48,0.0
x_44_35,0.0
x_44_65,0.0
x_44_30,0.0
x_45_58,0.0
x_45_51,0.0
x_45_79,0.0
x_45_61,0.0
x_45_19,0.0
x_45_69,0.0
x_45_70,0.0
x_45_35,0.0
x_45_73,0.0
x_45_82,0.0
x_45_83,0.0
x_45_65,0.0
x_45_38,0.0
x_45_9,0.0
x_45_98,0.0
x_45_55,0.0
x_45_7,0.0
x_45_62,0.5
x_45_86,0.0
x_45_10,0.0
x_46_44,0.0
x_46_54,0.333333333333
x_46_73,0.0
x_46_95,0.0
x_46_93,0.666666666667
x_46_97,0.0
x_46_96,0.0
x_46_74,0.0
x_46_83,0.0
x_46_75,0.0
x_46_45,0.0
x_46_15,0.0
x_46_52,0.0
x_46_35,0.0
x_46_19,0.0
x_46_51,0.0
x_46_8,0.0
x_46_40,0.0
x_46_69,0.0
x_46_17,0.0
x_47_29,0.0
x_47_49,0.0
x_47_17,0.0
x_47_77,0.0
x_47_52,0.0
x_47_55,0.0
x_47_47,0.0
x_47_83,0.0
x_47_31,0.5
x_47_8,0.0
x_47_60,0.0
x_47_10,0.0
x_47_96,0.0
x_47_19,0.0
x_47_33,0.0
x_47_45,0.0
x_47_51,0.0
x_47_54,0.5
x_47_35,0.0
x_47_44,0.0
x_48_39,0.0
x_48_7,0.0
x_48_82,0.0
x_48_8,0.0
x_48_49,0.0
x_48_91,0.0
x_48_96,0.0
x_48_24,0.0
x_48_47,0.0
x_48_3,1.0
x_48_75,0.0
x_48_74,0.0
x_48_9,0.0
x_48_55,0.0
x_48_94,0.0
x_48_92,0.0
x_48_58,0.0
x_48_11,0.0
x_48_54,0.0
x_48_57,0.0
x_49_17,0.0
x_49_52,0.0
x_49_7,0.0
x_49_54,0.0
x_49_63,0.0
x_49_61,0.0
x_49_58,0.0
x_49_16,0.0
x_49_49,0.0
x_49_47,0.0
x_49_15,0.0
x_49_82,0.0
x_49_96,0.0
x_49_24,0.5
x_49_9,0.0
x_49_33,0.0
x_49_44,0.0
x_49_70,0.0
x_49_60,0.0
x_49_30,0.0
x_50_1,1.0
x_50_40,0.0
x_50_81,0.0
x_50_5,0.0
x_50_69,0.0
x_50_94,0.0
x_50_50,0.0
x_50_82,0.0
x_50_98,0.0
x_50_65,0.0
x_50_45,0.0
x_50_73,0.0
x_50_68,0.0
x_50_49,0.0
x_50_33,0.0
x_50_53,0.0
x_50_7,0.0
x_50_70,0.0
x_50_52,0.0
x_50_60,0.0
x_51_35,1.0
x_51_54,0.0
x_51_9,0.0
x_51_10,0.0
x_51_70,0.0
x_51_60,0.0
x_51_94,0.0
x_51_73,0.0
x_51_96,0.0
x_51_12,0.0
x_51_48,0.0
x_51_47,0.0
x_51_15,0.0
x_51_83,0.0
x_51_52,0.0
x_51_43,0.0
x_51_44,0.0
x_51_58,0.0
x_51_69,0.0
x_51_41,0.0
x_52_22,0.5
x_52_65,0.0
x_52_41,0.5
x_52_30,0.0
x_52_94,0.0
x_52_90,0.0
x_52_7,0.0
x_52_52,0.0
x_52_95,0.0
x_52_33,0.0
x_52_63,0.0
x_52_21,0.0
x_52_10,0.0
x_52_35,0.0
x_52_93,0.0
x_52_88,0.0
x_52_73,0.0
x_52_27,0.0
x_52_49,0.0
x_52_51,0.0
x_53_63,0.0
x_53_52,0.0
x_53_80,0.0
x_53_97,0.0
x_53_58,0.333333333333
x_53_95,0.0
x_53_22,0.0
x_53_93,0.0
x_53_44,0.0
x_53_92,0.0
x_53_7,0.0
x_53_88,0.0
x_53_70,0.0
x_53_1,0.0
x_53_59,0.0
x_53_55,0.0
x_53_47,0.0
x_53_98,0.666666666667
x_53_6,0.0
x_53_81,0.0
x_54_96,0.0
x_54_84,1.0
x_54_35,0.0
x_54_69,0.0
x_54_60,0.0
x_54_92,0.0
x_54_73,0.0
x_54_19,0.0
x_54_52,0.0
x_54_36,0.0
x_54_2,0.0
x_54_29,0.0
x_54_61,0.0
x_54_22,0.0
x_54_45,0.0
x_54_17,0.0
x_54_54,0.0
x_54_89,0.0
x_54_1,0.0
x_54_65,0.0
x_55_1,0.0
x_55_73,0.0
x_55_58,0.0
x_55_96,0.0
x_55_45,0.0
x_55_99,0.0
x_55_74,0.0
x_55_30,0.0
x_55_69,0.0
x_55_51,0.0
x_55_80,0.0
x_55_9,0.0
x_55_60,0.0
x_55_77,0.0
x_55_15,0.0
x_55_78,1.0
x_55_6,0.0
x_55_95,0.0
x_55_82,0.0
x_55_10,0.0
x_56_37,0.0
x_56_4,1.0
x_56_30,0.0
x_56_81,0.0
x_56_97,0.0
x_56_75,0.0
x_56_8,0.0
x_56_49,0.0
x_56_59,0.0
x_56_52,0.0
x_56_5,0.0
x_56_60,0.0
x_56_2,0.0
x_56_9,0.0
x_56_27,0.0
x_56_95,0.0
x_56_29,0.0
x_56_33,0.0
x_56_15,0.0
x_56_68,0.0
x_57_52,0.0
x_57_16,0.5
x_57_47,0.0
x_57_74,0.0
x_57_10,0.0
x_57_24,0.5
x_57_1,0.0
x_57_34,0.0
x_57_7,0.0
x_57_78,0.0
x_57_53,0.0
x_57_19,0.0
x_57_60,0.0
x_57_33,0.0
x_57_70,0.0
x_57_17,0.0
x_57_29,0.0
x_57_44,0.0
x_57_69,0.0
x_57_38,0.0
x_58_82,0.0
x_58_28,0.5
x_58_63,0.0
x_58_70,0.0
x_58_29,0.0
x_58_99,0.0
x_58_19,0.0
x_58_7,0.0
x_58_33,0.0
x_58_35,0.0
x_58_95,0.0
x_58_75,0.0
x_58_10,0.0
x_58_62,0.5
x_58_76,0.0
x_58_73,0.0
x_58_97,0.0
x_58_52,0.0
x_58_84,0.0
x_58_57,0.0
x_59_98,0.0
x_59_35,0.0
x_59_22,0.0
x_59_82,0.0
x_59_15,0.0
x_59_44,0.0
x_59_45,0.0
x_59_49,0.0
x_59_66,0.0
x_59_18,0.0
x_59_52,0.0
x_59_1,0.0
x_59_47,0.0
x_59_55,0.0
x_59_95,0.0
x_59_51,0.0
x_59_63,0.0
x_59_3,0.0
x_59_96,0.0
x_59_28,0.0
x_60_33,0.0
x_60_55,0.0
x_60_65,1.0
x_60_47,0.0
x_60_54,0.0
x_60_100,0.0
x_60_97,0.0
x_60_74,0.0
x_60_35,0.0
x_60_52,0.0
x_60_19,0.0
x_60_94,0.0
x_60_58,0.0
x_60_2,0.0
x_60_96,0.0
x_60_91,0.0
x_60_73,0.0
x_60_75,0.0
x_60_15,0.0
x_60_31,0.0
x_61_77,0.0
x_61_33,0.0
x_61_18,0.0
x_61_82,0.5
x_61_16,0.0
x_61_58,0.0
x_61_15,0.0
x_61_97,0.5
x_61_83,0.0
x_61_19,0.0
x_61_30,0.0
x_61_54,0.0
x_61_28,0.0
x_61_29,0.0
x_61_51,0.0
x_61_22,0.0
x_61_47,0.0
x_61_65,0.0
x_61_80,0.0
x_61_10,0.0
x_62_44,0.0
x_62_47,0.0
x_62_16,0.0
x_62_39,0.5
x_62_93,0.0
x_62_54,0.0
x_62_73,0.0
x_62_96,0.0
x_62_100,0.5
x_62_48,0.0
x_62_70,0.0
x_62_69,0.0
x_62_92,0.0
x_62_40,0.0
x_62_52,0.0
x_62_33,0.0
x_62_30,0.0
x_62_6,0.0
x_62_75,0.0
x_62_58,0.0
x_63_15,0.0
x_63_52,0.0
x_63_49,0.0
x_63_83,0.0
x_63_1,0.0
x_63_14,0.0
x_63_96,0.0
x_63_82,0.0
x_63_69,0.0
x_63_74,0.0
x_63_17,0.0
x_63_73,0.0
x_63_33,0.0
x_63_45,0.0
x_63_66,0.0
x_63_97,0.0
x_63_29,0.0
x_63_16,0.0
x_63_35,0.0
x_63_90,0.0
x_64_45,1.0
x_64_29,0.0
x_64_58,0.0
x_64_44,0.0
x_64_63,0.0
x_64_74,0.0
x_64_96,0.0
x_64_80,0.0
x_64_75,0.0
x_64_26,0.0
x_64_19,0.0
x_64_28,0.0
x_64_86,0.0
x_64_6,0.0
x_64_8,0.0
x_64_9,0.0
x_64_33,0.0
x_64_31,0.0
x_64_40,0.0
x_64_54,0.0
x_65_15,0.0
x_65_71,1.0
x_65_29,0.0
x_65_63,0.0
x_65_24,0.0
x_65_35,0.0
x_65_44,0.0
x_65_30,0.0
x_65_81,0.0
x_65_70,0.0
x_65_74,0.0
x_65_52,0.0
x_65_58,0.0
x_65_37,0.0
x_65_60,0.0
x_65_76,0.0
x_65_22,0.0
x_65_6,0.0
x_65_95,0.0
x_65_65,0.0
x_66_33,0.0
x_66_7,0.0
x_66_58,0.0
x_66_69,0.0
x_66_30,0.0
x_66_10,0.0
x_66_31,0.0
x_66_95,0.0
x_66_35,0.0
x_66_29,0.0
x_66_9,0.0
x_66_82,0.0
x_66_17,0.0
x_66_96,0.0
x_66_63,0.0
x_66_44,0.0
x_66_80,0.0
x_66_28,0.0
x_66_70,0.0
x_66_19,0.0
x_67_33,0.5
x_67_89,0.0
x_67_61,0.0
x_67_15,0.0
x_67_55,0.0
x_67_82,0.0
x_67_51,0.0
x_67_58,0.0
x_67_17,0.0
x_67_25,0.5
x_67_7,0.0
x_67_35,0.0
x_67_70,0.0
x_67_9,0.0
x_67_26,0.0
x_67_60,0.0
x_67_23,0.0
x_67_62,0.0
x_67_66,0.0
x_67_83,0.0
x_68_94,0.0
x_68_66,0.0
x_68_60,0.0
x_68_22,0.0
x_68_88,0.0
x_68_92,0.0
x_68_98,0.333333333333
x_68_52,0.0
x_68_69,0.0
x_68_49,0.0
x_68_63,0.0
x_68_83,0.0
x_68_55,0.0
x_68_95,0.0
x_68_32,0.0
x_68_96,0.0
x_68_41,0.0
x_68_51,0.0
x_68_43,0.666666666667
x_68_70,0.0
x_69_99,0.0
x_69_63,0.0
x_69_11,0.333333333333
x_69_88,0.0
x_69_32,0.0
x_69_44,0.0
x_69_17,0.0
x_69_52,0.0
x_69_10,0.0
x_69_94,0.0
x_69_47,0.0
x_69_2,0.0
x_69_40,0.0
x_69_60,0.0
x_69_33,0.0
x_69_69,0.0
x_69_54,0.0
x_69_72,0.666666666667
x_69_48,0.0
x_69_15,0.0
x_70_70,1.0
x_70_60,0.0
x_70_93,0.0
x_70_45,0.0
x_70_80,0.0
x_70_82,0.0
x_70_75,0.0
x_70_19,0.0
x_70_47,0.0
x_70_7,0.0
x_70_17,0.0
x_70_15,0.0
x_70_33,0.0
x_70_1,0.0
x_70_29,0.0
x_70_74,0.0
x_70_39,0.0
x_70_44,0.0
x_70_73,0.0
x_70_9,0.0
x_71_17,0.0
x_71_95,0.0
x_71_52,0.0
x_71_99,0.0
x_71_92,0.0
x_71_9,0.0
x_71_41,0.0
x_71_1,0.0
x_71_26,0.0
x_71_58,0.0
x_71_29,0.0
x_71_82,0.0
x_71_30,0.0
x_71_16,0.0
x_71_65,0.0
x_71_60,0.0
x_71_10,0.0
x_71_23,0.0
x_71_28,0.0
x_71_35,0.0
x_72_90,1.0
x_72_35,0.0
x_72_34,0.0
x_72_44,0.0
x_72_69,0.0
x_72_95,0.0
x_72_3,0.0
x_72_83,0.0
x_72_96,0.0
x_72_51,0.0
x_72_29,0.0
x_72_97,0.0
x_72_20,0.0
x_72_79,0.0
x_72_60,0.0
x_72_58,0.0
x_72_1,0.0
x_72_68,0.0
x_72_33,0.0
x_72_74,0.0
x_73_69,0.333333333333
x_73_45,0.0
x_73_16,0.0
x_73_63,0.0
x_73_1,0.0
x_73_60,0.0
x_73_51,0.0
x_73_6,0.0
x_73_92,0.0
x_73_47,0.0
x_73_18,0.0
x_73_95,0.0
x_73_48,0.5
x_73_29,0.0
x_73_65,0.0
x_73_94,0.0
x_73_30,0.0
x_73_74,0.0
x_73_10,0.0
x_73_41,0.0
x_74_7,0.0
x_74_52,0.0
x_74_99,1.0
x_74_44,0.0
x_74_45,0.0
x_74_6,0.0
x_74_36,0.0
x_74_17,0.0
x_74_96,0.0
x_74_74,0.0
x_74_73,0.0
x_74_29,0.0
x_74_100,0.0
x_74_70,0.0
x_74_51,0.0
x_74_30,0.0
x_74_69,0.0
x_74_91,0.0
x_74_15,0.0
x_74_60,0.0
x_75_75,1.0
x_75_44,0.0
x_75_95,0.0
x_75_1,0.0
x_75_82,0.0
x_75_9,0.0
x_75_49,0.0
x_75_100,0.0
x_75_58,0.0
x_75_48,0.0
x_75_73,0.0
x_75_96,0.0
x_75_55,0.0
x_75_60,0.0
x_75_70,0.0
x_75_19,0.0
x_75_79,0.0
x_75_69,0.0
x_75_29,0.0
x_75_54,0.0
x_76_95,0.0
x_76_40,1.0
x_76_29,0.0
x_76_15,0.0
x_76_46,0.0
x_76_58,0.0
x_76_50,0.0
x_76_14,0.0
x_76_69,0.0
x_76_35,0.0
x_76_96,0.0
x_76_30,0.0
x_76_73,0.0
x_76_49,0.0
x_76_60,0.0
x_76_24,0.0
x_76_33,0.0
x_76_52,0.0
x_76_59,0.0
x_76_74,0.0
x_77_2,0.5
x_77_51,0.0
x_77_9,0.0
x_77_35,0.0
x_77_18,0.0
x_77_70,0.0
x_77_74,0.0
x_77_92,0.0
x_77_89,0.0
x_77_81,0.166666666667
x_77_60,0.0
x_77_19,0.333333333333
x_77_47,0.0
x_77_32,0.0
x_77_16,0.0
x_77_10,0.0
x_77_15,0.0
x_77_55,0.0
x_77_29,0.0
x_77_17,0.0
x_78_10,0.0
x_78_92,0.0
x_78_7,0.0
x_78_63,0.0
x_78_81,0.5
x_78_29,0.0
x_78_27,0.0
x_78_100,0.5
x_78_54,0.0
x_78_35,0.0
x_78_70,0.0
x_78_1,0.0
x_78_6,0.0
x_78_23,0.0
x_78_51,0.0
x_78_60,0.0
x_78_97,0.0
x_78_30,0.0
x_78_74,0.0
x_78_83,0.0
x_79_47,0.0
x_79_8,0.0
x_79_52,0.0
x_79_26,1.0
x_79_70,0.0
x_79_97,0.0
x_79_69,0.0
x_79_16,0.0
x_79_18,0.0
x_79_1,0.0
x_79_17,0.0
x_79_51,0.0
x_79_19,0.0
x_79_73,0.0
x_79_79,0.0
x_79_83,0.0
x_79_29,0.0
x_79_95,0.0
x_79_82,0.0
x_79_33,0.0
x_80_53,1.0
x_80_7,0.0
x_80_95,0.0
x_80_1,0.0
x_80_19,0.0
x_80_74,0.0
x_80_89,0.0
x_80_30,0.0
x_80_10,0.0
x_80_41,0.0
x_80_80,0.0
x_80_60,0.0
x_80_47,0.0
x_80_33,0.0
x_80_58,0.0
x_80_51,0.0
x_80_61,0.0
x_80_73,0.0
x_80_52,0.0
x_80_54,0.0
x_81_20,1.0
x_81_44,0.0
x_81_17,0.0
x_81_60,0.0
x_81_33,0.0
x_81_39,0.0
x_81_55,0.0
x_81_28,0.0
x_81_74,0.0
x_81_10,0.0
x_81_6,0.0
x_81_85,0.0
x_81_70,0.0
x_81_27,0.0
x_81_97,0.0
x_81_51,0.0
x_81_16,0.0
x_81_96,0.0
x_81_47,0.0
x_81_29,0.0
x_82_80,0.0
x_82_96,0.0
x_82_8,0.0
x_82_7,0.0
x_82_33,0.0
x_82_92,0.0
x_82_6,1.0
x_82_19,0.0
x_82_97,0.0
x_82_44,0.0
x_82_99,0.0
x_82_52,0.0
x_82_35,0.0
x_82_47,0.0
x_82_36,0.0
x_82_58,0.0
x_82_30,0.0
x_82_29,0.0
x_82_60,0.0
x_82_2,0.0
x_83_86,1.0
x_83_33,0.0
x_83_17,0.0
x_83_26,0.0
x_83_47,0.0
x_83_29,0.0
x_83_45,0.0
x_83_55,0.0
x_83_60,0.0
x_83_92,0.0
x_83_74,0.0
x_83_39,0.0
x_83_28,0.0
x_83_83,0.0
x_83_52,0.0
x_83_75,0.0
x_83_8,0.0
x_83_10,0.0
x_83_80,0.0
x_83_82,0.0
x_84_63,0.0
x_84_30,0.5
x_84_27,0.5
x_84_17,0.0
x_84_65,0.0
x_84_60,0.0
x_84_75,0.0
x_84_35,0.0
x_84_97,0.0
x_84_23,0.0
x_84_18,0.0
x_84_69,0.0
x_84_72,0.0
x_84_90,0.0
x_84_48,0.0
x_84_41,0.0
x_84_26,0.0
x_84_66,0.0
x_84_2,0.0
x_84_52,0.0
x_85_16,0.0
x_85_80,0.5
x_85_60,0.0
x_85_28,0.5
x_85_22,0.0
x_85_52,0.0
x_85_50,0.0
x_85_73,0.0
x_85_40,0.0
x_85_9,0.0
x_85_19,0.0
x_85_33,0.0
x_85_96,0.0
x_85_24,0.0
x_85_65,0.0
x_85_74,0.0
x_85_95,0.0
x_85_58,0.0
x_85_29,0.0
x_85_12,0.0
x_86_32,1.0
x_86_49,0.0
x_86_30,0.0
x_86_22,0.0
x_86_77,0.0
x_86_60,0.0
x_86_76,0.0
x_86_17,0.0
x_86_54,0.0
x_86_94,0.0
x_86_84,0.0
x_86_39,0.0
x_86_73,0.0
x_86_35,0.0
x_86_52,0.0
x_86_58,0.0
x_86_44,0.0
x_86_57,0.0
x_86_92,0.0
x_86_70,0.0
x_87_91,1.0
x_87_49,0.0
x_87_10,0.0
x_87_24,0.0
x_87_28,0.0
x_87_7,0.0
x_87_6,0.0
x_87_33,0.0
x_87_18,0.0
x_87_1,0.0
x_87_84,0.0
x_87_60,0.0
x_87_19,0.0
x_87_75,0.0
x_87_58,0.0
x_87_96,0.0
x_87_32,0.0
x_87_79,0.0
x_87_65,0.0
x_87_92,0.0
x_88_22,0.0
x_88_91,0.0
x_88_8,1.0
x_88_74,0.0
x_88_19,0.0
x_88_54,0.0
x_88_73,0.0
x_88_47,0.0
x_88_29,0.0
x_88_5,0.0
x_88_15,0.0
x_88_49,0.0
x_88_92,0.0
x_88_10,0.0
x_88_81,0.0
x_88_69,0.0
x_88_21,0.0
x_88_60,0.0
x_88_70,0.0
x_88_94,0.0
x_89_52,0.666666666667
x_89_44,0.0
x_89_69,0.0
x_89_83,0.0
x_89_82,0.0
x_89_72,0.333333333333
x_89_74,0.0
x_89_30,0.0
x_89_87,0.0
x_89_73,0.0
x_89_18,0.0
x_89_13,0.0
x_89_22,0.0
x_89_60,0.0
x_89_16,0.0
x_89_49,0.0
x_89_100,0.0
x_89_9,0.0
x_89_84,0.0
x_89_89,0.0
x_90_77,1.0
x_90_99,0.0
x_90_73,0.0
x_90_9,0.0
x_90_29,0.0
x_90_84,0.0
x_90_70,0.0
x_90_92,0.0
x_90_55,0.0
x_90_11,0.0
x_90_80,0.0
x_90_51,0.0
x_90_63,0.0
x_90_33,0.0
x_90_7,0.0
x_90_52,0.0
x_90_24,0.0
x_90_22,0.0
x_90_97,0.0
x_90_54,0.0
x_91_29,0.0
x_91_44,0.0
x_91_79,0.5
x_91_64,0.5
x_91_41,0.0
x_91_31,0.0
x_91_58,0.0
x_91_28,0.0
x_91_22,0.0
x_91_92,0.0
x_91_54,0.0
x_91_47,0.0
x_91_82,0.0
x_91_39,0.0
x_91_2,0.0
x_91_60,0.0
x_91_63,0.0
x_91_95,0.0
x_91_93,0.0
x_91_19,0.0
x_92_87,1.0
x_92_65,0.0
x_92_8,0.0
x_92_40,0.0
x_92_19,0.0
x_92_24,0.0
x_92_1,0.0
x_92_51,0.0
x_92_30,0.0
x_92_69,0.0
x_92_83,0.0
x_92_12,0.0
x_92_18,0.0
x_92_88,0.0
x_92_47,0.0
x_92_53,0.0
x_92_2,0.0
x_92_94,0.0
x_92_82,0.0
x_92_52,0.0
x_93_92,1.0
x_93_57,0.0
x_93_29,0.0
x_93_28,0.0
x_93_58,0.0
x_93_86,0.0
x_93_60,0.0
x_93_69,0.0
x_93_8,0.0
x_93_72,0.0
x_93_21,0.0
x_93_10,0.0
x_93_95,0.0
x_93_74,0.0
x_93_30,0.0
x_93_52,0.0
x_93_73,0.0
x_93_26,0.0
x_93_79,0.0
x_93_7,0.0
x_94_73,0.0
x_94_29,0.0
x_94_44,0.0
x_94_23,1.0
x_94_7,0.0
x_94_100,0.0
x_94_9,0.0
x_94_22,0.0
x_94_19,0.0
x_94_96,0.0
x_94_51,0.0
x_94_64,0.0
x_94_83,0.0
x_94_97,0.0
x_94_75,0.0
x_94_27,0.0
x_94_58,0.0
x_94_61,0.0
x_94_92,0.0
x_94_69,0.0
x_95_70,0.0
x_95_41,0.5
x_95_48,0.5
x_95_95,0.0
x_95_100,0.0
x_95_60,0.0
x_95_82,0.0
x_95_44,0.0
x_95_94,0.0
x_95_71,0.0
x_95_8,0.0
x_95_59,0.0
x_95_10,0.0
x_95_9,0.0
x_95_30,0.0
x_95_52,0.0
x_95_16,0.0
x_95_49,0.0
x_95_55,0.0
x_95_74,0.0
x_96_22,0.0
x_96_91,0.0
x_96_95,0.0
x_96_93,0.0
x_96_33,0.0
x_96_52,0.0
x_96_9,0.0
x_96_60,0.0
x_96_41,0.0
x_96_11,0.0
x_96_97,0.0
x_96_83,0.0
x_96_27,0.5
x_96_73,0.0
x_96_82,0.0
x_96_6,0.0
x_96_18,0.0
x_96_80,0.0
x_96_79,0.0
x_96_29,0.0
x_97_94,0.0
x_97_5,0.0
x_97_17,0.0
x_97_7,0.0
x_97_69,0.0
x_97_6,0.0
x_97_37,0.0
x_97_29,0.0
x_97_84,0.0
x_97_18,0.0
x_97_49,0.0
x_97_75,0.0
x_97_52,0.0
x_97_47,0.0
x_97_35,0.0
x_97_70,0.0
x_97_55,0.0
x_97_96,0.0
x_97_60,0.0
x_97_63,0.0
x_98_95,0.0
x_98_97,0.5
x_98_79,0.5
x_98_48,0.0
x_98_22,0.0
x_98_10,0.0
x_98_7,0.0
x_98_74,0.0
x_98_82,0.0
x_98_34,0.0
x_98_63,0.0
x_98_1,0.0
x_98_37,0.0
x_98_15,0.0
x_98_92,0.0
x_98_69,0.0
x_98_28,0.0
x_98_50,0.0
x_98_83,0.0
x_98_70,0.0
x_99_60,0.5
x_99_58,0.0
x_99_15,0.0
x_99_94,0.0
x_99_10,0.0
x_99_22,0.0
x_99_49,0.0
x_99_67,0.5
x_99_47,0.0
x_99_34,0.0
x_99_82,0.0
x_99_52,0.0
x_99_28,0.0
x_99_19,0.0
x_99_16,0.0
x_99_55,0.0
x_99_17,0.0
x_99_74,0.0
x_99_29,0.0
x_99_66,0.0
x_100_49,0.5
x_100_60,0.0
x_100_44,0.0
x_100_80,0.0
x_100_37,0.5
x_100_29,0.0
x_100_19,0.0
x_100_55,0.0
x_100_88,0.0
x_100_73,0.0
x_100_68,0.0
x_100_59,0.0
x_100_24,0.0
x_100_52,0.0
x_100_15,0.0
x_100_51,0.0
x_100_50,0.0
x_100_9,0.0
x_100_35,0.0
x_100_10,0.0
